<?xml version="1.0" encoding="UTF-8" standalone="no"?>
<svg
   xmlns:dc="http://purl.org/dc/elements/1.1/"
   xmlns:cc="http://creativecommons.org/ns#"
   xmlns:rdf="http://www.w3.org/1999/02/22-rdf-syntax-ns#"
   xmlns:svg="http://www.w3.org/2000/svg"
   xmlns="http://www.w3.org/2000/svg"
   id="svg3590"
   version="1.1"
   viewBox="0 0 144 38"
   height="38px"
   width="144px">
  <metadata
     id="metadata3604">
    <rdf:RDF>
      <cc:Work
         rdf:about="">
        <dc:format>image/svg+xml</dc:format>
        <dc:type
           rdf:resource="http://purl.org/dc/dcmitype/StillImage" />
        <dc:title>music_ru_color</dc:title>
      </cc:Work>
    </rdf:RDF>
  </metadata>
  <!-- Generator: Sketch 40 (33762) - http://www.bohemiancoding.com/sketch -->
  <title
     id="title3592">music_ru_color</title>
  <desc
     id="desc3594">Created with Sketch.</desc>
  <defs
     id="defs3596" />
  <g
     id="Page-1-9"
     style="fill:none;fill-rule:evenodd;stroke:none;stroke-width:1"
     transform="translate(0.63420002,4.3349994)">
    <g
       id="music_color_ru">
      <g
         transform="translate(0,3)"
         id="Group">
        <path
           id="Fill-1"
           d="m 8.7158,2.0595 -1.3,0 c -1.965,0 -3.866,1.3 -3.866,5.071 0,3.645 1.743,4.818 3.866,4.818 l 1.3,0 0,-9.889 z m -2.028,11.917 -3.867,8.684 -2.821,0 4.247,-9.287 c -1.997,-1.013 -3.328,-2.852 -3.328,-6.243 0,-4.754 3.011,-7.131 6.593,-7.131 l 3.644,0 0,22.661 -2.44,0 0,-8.684 -2.028,0 z"
           style="fill:#fa0b00" />
        <path
           id="Fill-4"
           d="m 58.4248,14.6738 c 0,-5.008 1.934,-8.209 5.674,-8.209 1.426,0 2.25,0.381 2.947,0.824 l -0.349,2.346 c -0.666,-0.57 -1.616,-1.109 -2.63,-1.109 -1.775,0 -3.042,1.996 -3.042,6.021 0,3.993 0.95,6.275 2.947,6.275 1.204,0 2.123,-0.475 2.693,-0.982 l 0.571,1.838 c -0.856,0.728 -1.87,1.204 -3.328,1.204 -3.422,0 -5.483,-2.757 -5.483,-8.208 l 0,0 z m -7.226,0.031 0,7.955 -2.471,0 0,-15.972 2.471,0 0,7.383 3.835,-7.383 2.504,0 -3.962,7.51 4.533,8.462 -2.695,0 -4.215,-7.955 z m -11.63,-1.489 4.087,0 c 0,-2.726 -0.443,-4.723 -1.869,-4.723 -1.521,0 -2.06,1.87 -2.218,4.723 l 0,0 z m 2.725,9.666 c -3.296,0 -5.324,-2.63 -5.324,-7.543 0,-5.134 1.426,-8.874 4.817,-8.874 2.662,0 4.406,1.997 4.406,7.416 l 0,1.363 -6.657,0 c 0,3.614 1.015,5.515 2.98,5.515 1.394,0 2.504,-0.634 3.138,-1.078 l 0.57,1.902 c -1.014,0.792 -2.346,1.299 -3.93,1.299 l 0,0 z m -10.522,-14.198 -2.757,0 0,0.285 c 0,3.359 -0.158,8.272 -1.489,11.663 l 4.246,0 0,-11.948 z m 3.708,17.114 -2.218,0 0,-3.138 -6.846,0 0,3.138 -2.219,0 0,-5.166 0.983,0 c 1.458,-3.391 1.616,-8.335 1.616,-12.582 l 0,-1.362 7.416,0 0,13.944 1.268,0 0,5.166 z m -12.708,-19.11 0,15.972 -2.441,0 0,-7.162 -3.677,0 0,7.162 -2.471,0 0,-15.972 2.471,0 0,6.782 3.677,0 0,-6.782 2.441,0 z"
           style="fill:#1d1c1b" />
        <path
           id="Fill-9"
           d="m 90.1221,27.6679 -0.158,-1.395 c 0.254,0.064 0.57,0.126 0.982,0.126 1.078,0 1.838,-1.044 2.314,-2.82 l 0.127,-0.475 -3.962,-16.416 1.49,0 2.535,10.426 c 0.285,1.204 0.507,2.377 0.665,3.613 l 0.096,0 c 0.222,-1.268 0.475,-2.441 0.761,-3.613 l 2.471,-10.426 1.331,0 -4.088,16.796 c -0.539,2.156 -1.49,4.247 -3.74,4.247 -0.348,0 -0.602,-0.032 -0.824,-0.063"
           style="fill:#1d1c1b" />
        <path
           id="Fill-11"
           d="m 100.0254,21.2021 0.508,-1.236 c 0,0 1.077,1.712 3.263,1.712 1.649,0 2.98,-1.173 2.98,-3.487 0,-1.996 -0.982,-3.359 -3.359,-3.359 l -1.331,0 0,-1.204 1.172,0 c 1.838,0 3.137,-1.11 3.137,-3.296 0,-1.616 -0.855,-2.662 -2.408,-2.662 -1.458,0 -2.504,0.823 -3.201,1.805 l -0.38,-1.425 c 0.697,-0.919 1.87,-1.68 3.581,-1.68 2.504,0 3.835,1.585 3.835,3.93 0,1.552 -0.634,2.979 -2.377,3.835 1.996,0.729 2.852,2.282 2.852,4.025 0,3.105 -2.028,4.817 -4.468,4.817 -2.568,0 -3.804,-1.775 -3.804,-1.775"
           style="fill:#1d1c1b" />
        <path
           id="Fill-13"
           d="m 120.105,22.6604 1.458,0 0,-15.973 -1.458,0 0,15.973 z m -7.891,-8.874 0,7.701 0.951,0 c 2.25,0 3.771,-1.11 3.771,-3.866 0,-2.695 -1.332,-3.835 -3.613,-3.835 l -1.109,0 z m -1.489,-7.099 1.489,0 0,5.926 1.173,0 c 3.042,0 5.007,1.648 5.007,4.975 0,3.392 -2.092,5.072 -5.103,5.072 l -2.566,0 0,-15.973 z"
           style="fill:#1d1c1b" />
        <polygon
           points="131.8087,22.6601 126.2627,14.3891 126.2627,22.6601 124.7737,22.6601 124.7737,6.6871 126.2627,6.6871 126.2627,14.1981 131.6177,6.6871 133.0757,6.6871 127.8157,14.1031 133.4567,22.6601 "
           id="Fill-15"
           style="fill:#1d1c1b" />
        <path
           id="Fill-16"
           d="m 141.4326,18.6347 0,-4.405 -1.711,0 c -2.631,0 -3.898,1.205 -3.898,3.994 0,2.25 0.982,3.549 2.504,3.549 1.489,0 2.535,-1.426 3.105,-3.138 m 0.063,1.87 c -0.76,1.522 -1.901,2.473 -3.486,2.473 -2.154,0 -3.644,-1.712 -3.644,-4.628 0,-3.423 1.87,-5.197 5.324,-5.197 l 1.743,0 0,-1.997 c 0,-2.44 -0.919,-3.486 -2.662,-3.486 -1.362,0 -2.599,0.634 -3.359,1.743 l -0.413,-1.426 c 0.634,-0.825 1.965,-1.617 3.772,-1.617 2.631,0 4.12,1.458 4.12,4.627 l 0,8.716 c 0,1.11 0.158,2.345 0.349,2.947 l -1.363,0 c -0.127,-0.412 -0.285,-1.014 -0.381,-2.155"
           style="fill:#1d1c1b" />
        <path
           id="path3439"
           d="m 77.168182,7.0549996 c -0.318939,-1.173 -0.573486,-2.187 -0.765655,-3.232 l -0.09458,0 c 0.06339,1.077 0.09458,2.218 0.09458,3.359 l 0,15.8779994 -1.402527,0 0,-22.65999938 1.849243,0 L 80.707703,14.883 c 0.158966,0.603 0.382324,1.774999 0.477905,2.630999 l 0.09558,0 c 0.127777,-0.856 0.38333,-2.060999 0.542297,-2.630999 l 3.889649,-14.48300038 1.786864,0 0,22.65999938 -1.53131,0 0,-15.8779994 c 0,-1.077 0.06439,-2.219 0.127777,-3.359 l -0.127777,0 c -0.286744,1.267 -0.510102,2.186 -0.765656,3.137 l -3.410737,12.6139994 -1.244567,0 L 77.16818,7.0549996 Z"
           style="fill:#1d1c1b" />
      </g>
    </g>
  </g>
</svg>
